team_05_Async_FIFO/M4_U/RUN/uvm_AFIFO_top.vcd
$date
	Wed Mar  5 00:00:20 2025
$end
$version
	QuestaSim Version 2021.3_1
$end
$timescale
	1ns
$end

$scope module uvm_AFIFO_top $end

$scope module vif $end
$var parameter 32 ! DSIZE $end
$var parameter 32 " ASIZE $end
$var reg 8 # rd_data [7:0] $end
$var reg 8 $ wr_data [7:0] $end
$var reg 1 % wr_full $end
$var reg 1 & rd_empty $end
$var reg 1 ' wr_inc $end
$var reg 1 ( rd_inc $end
$var reg 1 ) wr_clk $end
$var reg 1 * rd_clk $end
$var reg 1 + wr_rst $end
$var reg 1 , rd_rst $end
$upscope $end
$upscope $end
$enddefinitions $end
#0
$dumpvars
bx #
bx $
0%
1&
0'
0(
1)
0*
0+
0,
b1000 !
b11 "
$end
#5
0)
#10
1*
1)
#15
0)
#20
0*
1)
1+
1,
#25
0)
#30
1*
1)
0,
0+
#35
0)
#40
0*
1)
1+
1,
#45
0)
#50
1*
1)
1'
b10001011 $
#55
0)
#60
0*
1)
b111 $
#65
0)
#70
1*
1)
b10010011 $
#75
0)
#80
0*
1)
b1100001 $
#85
0)
#90
1*
1)
b1110100 $
#95
0)
#100
0*
1)
b1010 $
#105
0)
#110
1*
1)
b111 $
0&
#115
0)
#120
0*
1)
b11000111 $
#123
1(
#125
0)
#130
1*
1)
b10110011 $
b10001011 #
1%
#135
0)
#140
0*
1)
0(
#145
0)
#150
1*
1)
#155
0)
#160
0*
1)
0%
#163
1(
#165
0)
#170
1*
1)
b11001 $
b111 #
1%
#175
0)
#180
0*
1)
0(
#185
0)
#190
1*
1)
#195
0)
#200
0*
1)
0%
#203
1(
#205
0)
#210
1*
1)
b1000011 $
b10010011 #
1%
#215
0)
#220
0*
1)
0(
#225
0)
#230
1*
1)
#235
0)
#240
0*
1)
0%
#243
1(
#245
0)
#250
1*
1)
b11110111 $
b1100001 #
1%
#255
0)
#260
0*
1)
0(
#265
0)
#270
1*
1)
#275
0)
#280
0*
1)
0%
#283
1(
#285
0)
#290
1*
1)
b10100110 $
b1110100 #
1%
#295
0)
#300
0*
1)
0(
#305
0)
#310
1*
1)
#315
0)
#320
0*
1)
0%
#323
1(
#325
0)
#330
1*
1)
b1011110 $
b1010 #
1%
#335
0)
#340
0*
1)
0(
#345
0)
#350
1*
1)
#355
0)
#360
0*
1)
0%
#363
1(
#365
0)
#370
1*
1)
b100011 $
b111 #
1%
#375
0)
#380
0*
1)
0(
#385
0)
#390
1*
1)
#395
0)
#400
0*
1)
0%
#403
1(
#405
0)
#410
1*
1)
b1101100 $
b11000111 #
1%
#415
0)
#420
0*
1)
0(
#425
0)
#430
1*
1)
#435
0)
#440
0*
1)
0%
#443
1(
#445
0)
#450
1*
1)
b101001 $
b10110011 #
1%
#455
0)
#460
0*
1)
0(
#465
0)
#470
1*
1)
#475
0)
#480
0*
1)
0%
#483
1(
#485
0)
#490
1*
1)
b11101000 $
b11001 #
1%
#495
0)
#500
0*
1)
0(
#505
0)
#510
1*
1)
#515
0)
#520
0*
1)
0%
#523
1(
#525
0)
#530
1*
1)
b11101110 $
b1000011 #
1%
#535
0)
#540
0*
1)
0(
#545
0)
#550
1*
1)
#555
0)
#560
0*
1)
0%
#563
1(
#565
0)
#570
1*
1)
b101001 $
b11110111 #
1%
#575
0)
#580
0*
1)
0(
#585
0)
#590
1*
1)
#595
0)
#600
0*
1)
0%
#603
1(
#605
0)
#610
1*
1)
b11111101 $
b10100110 #
1%
#615
0)
#620
0*
1)
0(
#625
0)
#630
1*
1)
#635
0)
#640
0*
1)
0%
#643
1(
#645
0)
#650
1*
1)
b10011010 $
b1011110 #
1%
#655
0)
#660
0*
1)
0(
#665
0)
#670
1*
1)
#675
0)
#680
0*
1)
0%
#683
1(
#685
0)
#690
1*
1)
b1010110 $
b100011 #
1%
#695
0)
#700
0*
1)
0(
#705
0)
#710
1*
1)
#715
0)
#720
0*
1)
0%
#723
1(
#725
0)
#730
1*
1)
b10100100 $
b1101100 #
1%
#735
0)
#740
0*
1)
0(
#745
0)
#750
1*
1)
#755
0)
#760
0*
1)
0%
#763
1(
#765
0)
#770
1*
1)
b11010000 $
b101001 #
1%
#775
0)
#780
0*
1)
0(
#785
0)
#790
1*
1)
#795
0)
#800
0*
1)
0%
#803
1(
#805
0)
#810
1*
1)
b10001010 $
b11101000 #
1%
#815
0)
#820
0*
1)
0(
#825
0)
#830
1*
1)
#835
0)
#840
0*
1)
0%
#843
1(
#845
0)
#850
1*
1)
b10011000 $
b11101110 #
1%
#855
0)
#860
0*
1)
0(
#865
0)
#870
1*
1)
#875
0)
#880
0*
1)
0%
#883
1(
#885
0)
#890
1*
1)
b11101100 $
b101001 #
1%
#895
0)
#900
0*
1)
0(
#905
0)
#910
1*
1)
#915
0)
#920
0*
1)
0%
#923
1(
#925
0)
#930
1*
1)
b11111001 $
b11111101 #
1%
#935
0)
#940
0*
1)
0(
#945
0)
#950
1*
1)
#955
0)
#960
0*
1)
0%
#963
1(
#965
0)
#970
1*
1)
b10101001 $
b10011010 #
1%
#975
0)
#980
0*
1)
0(
#985
0)
#990
1*
1)
#995
0)
#1000
0*
1)
0%
#1003
1(
#1005
0)
#1010
1*
1)
b10011100 $
b1010110 #
1%
#1015
0)
#1020
0*
1)
0(
#1025
0)
#1030
1*
1)
#1035
0)
#1040
0*
1)
0%
#1043
1(
#1045
0)
#1050
1*
1)
b1011100 $
b10100100 #
1%
#1055
0)
#1060
0*
1)
0(
#1065
0)
#1070
1*
1)
#1075
0)
#1080
0*
1)
0%
#1083
1(
#1085
0)
#1090
1*
1)
b10100000 $
b11010000 #
1%
#1095
0)
#1100
0*
1)
0(
#1105
0)
#1110
1*
1)
#1115
0)
#1120
0*
1)
0%
#1123
1(
#1125
0)
#1130
1*
1)
b10111110 $
b10001010 #
1%
#1135
0)
#1140
0*
1)
0(
#1145
0)
#1150
1*
1)
#1155
0)
#1160
0*
1)
0%
#1163
1(
#1165
0)
#1170
1*
1)
b10100110 $
b10011000 #
1%
#1175
0)
#1180
0*
1)
0(
#1185
0)
#1190
1*
1)
#1195
0)
#1200
0*
1)
0%
#1203
1(
#1205
0)
#1210
1*
1)
b11110 $
b11101100 #
1%
#1215
0)
#1220
0*
1)
0(
#1225
0)
#1230
1*
1)
#1235
0)
#1240
0*
1)
0%
#1243
1(
#1245
0)
#1250
1*
1)
b10000000 $
b11111001 #
1%
#1255
0)
#1260
0*
1)
0(
#1265
0)
#1270
1*
1)
#1275
0)
#1280
0*
1)
0%
#1283
1(
#1285
0)
#1290
1*
1)
b110101 $
b10101001 #
1%
#1295
0)
#1300
0*
1)
0(
#1305
0)
#1310
1*
1)
#1315
0)
#1320
0*
1)
0%
#1323
1(
#1325
0)
#1330
1*
1)
b10010001 $
b10011100 #
1%
#1335
0)
#1340
0*
1)
0(
#1345
0)
#1350
1*
1)
#1355
0)
#1360
0*
1)
0%
#1363
1(
#1365
0)
#1370
1*
1)
b110000 $
b1011100 #
1%
#1375
0)
#1380
0*
1)
0(
#1385
0)
#1390
1*
1)
#1395
0)
#1400
0*
1)
0%
#1403
1(
#1405
0)
#1410
1*
1)
b10001 $
b10100000 #
1%
#1415
0)
#1420
0*
1)
0(
#1425
0)
#1430
1*
1)
#1435
0)
#1440
0*
1)
0%
#1443
1(
#1445
0)
#1450
1*
1)
b11101000 $
b10111110 #
1%
#1455
0)
#1460
0*
1)
0(
#1465
0)
#1470
1*
1)
#1475
0)
#1480
0*
1)
0%
#1483
1(
#1485
0)
#1490
1*
1)
b1000011 $
b10100110 #
1%
#1495
0)
#1500
0*
1)
0(
#1505
0)
#1510
1*
1)
#1515
0)
#1520
0*
1)
0%
#1523
1(
#1525
0)
#1530
1*
1)
b11010101 $
b11110 #
1%
#1535
0)
#1540
0*
1)
0(
#1545
0)
#1550
1*
1)
#1555
0)
#1560
0*
1)
0%
#1563
1(
#1565
0)
#1570
1*
1)
b1011110 $
b10000000 #
1%
#1575
0)
#1580
0*
1)
0(
#1585
0)
#1590
1*
1)
#1595
0)
#1600
0*
1)
0%
#1603
1(
#1605
0)
#1610
1*
1)
b1101100 $
b110101 #
1%
#1615
0)
#1620
0*
1)
0(
#1625
0)
#1630
1*
1)
#1635
0)
#1640
0*
1)
0%
#1643
1(
#1645
0)
#1650
1*
1)
b1101110 $
b10010001 #
1%
#1655
0)
#1660
0*
1)
0(
#1665
0)
#1670
1*
1)
#1675
0)
#1680
0*
1)
0%
#1683
1(
#1685
0)
#1690
1*
1)
b111110 $
b110000 #
1%
#1695
0)
#1700
0*
1)
0(
#1705
0)
#1710
1*
1)
#1715
0)
#1720
0*
1)
0%
#1723
1(
#1725
0)
#1730
1*
1)
b11111110 $
b10001 #
1%
#1735
0)
#1740
0*
1)
0(
#1745
0)
#1750
1*
1)
#1755
0)
#1760
0*
1)
0%
#1763
1(
#1765
0)
#1770
1*
1)
b11100000 $
b11101000 #
1%
#1775
0)
#1780
0*
1)
0(
#1785
0)
#1790
1*
1)
#1795
0)
#1800
0*
1)
0%
#1803
1(
#1805
0)
#1810
1*
1)
b10011110 $
b1000011 #
1%
#1815
0)
#1820
0*
1)
0(
#1825
0)
#1830
1*
1)
#1835
0)
#1840
0*
1)
0%
#1843
1(
#1845
0)
#1850
1*
1)
b10011111 $
b11010101 #
1%
#1855
0)
#1860
0*
1)
0(
#1865
0)
#1870
1*
1)
#1875
0)
#1880
0*
1)
0%
#1883
1(
#1885
0)
#1890
1*
1)
b1011001 $
b1011110 #
1%
#1895
0)
#1900
0*
1)
0(
#1905
0)
#1910
1*
1)
#1915
0)
#1920
0*
1)
0%
#1923
1(
#1925
0)
#1930
1*
1)
b11010111 $
b1101100 #
1%
#1935
0)
#1940
0*
1)
0(
#1945
0)
#1950
1*
1)
#1955
0)
#1960
0*
1)
0%
#1963
1(
#1965
0)
#1970
1*
1)
b1100 $
b1101110 #
1%
#1975
0)
#1980
0*
1)
0(
#1985
0)
#1990
1*
1)
#1995
0)
#2000
0*
1)
0%
#2003
1(
#2005
0)
#2010
1*
1)
b1111101 $
b111110 #
1%
#2015
0)
#2020
0*
1)
0(
#2025
0)
#2030
1*
1)
#2035
0)
#2040
0*
1)
0%
#2043
1(
#2045
0)
#2050
1*
1)
b100111 $
b11111110 #
1%
#2055
0)
#2060
0*
1)
0(
#2065
0)
#2070
1*
1)
#2075
0)
#2080
0*
1)
0%
#2083
1(
#2085
0)
#2090
1*
1)
b10101011 $
b11100000 #
1%
#2095
0)
#2100
0*
1)
0(
#2105
0)
#2110
1*
1)
#2115
0)
#2120
0*
1)
0%
#2123
1(
#2125
0)
#2130
1*
1)
b1001000 $
b10011110 #
1%
#2135
0)
#2140
0*
1)
0(
#2145
0)
#2150
1*
1)
#2155
0)
#2160
0*
1)
0%
#2163
1(
#2165
0)
#2170
1*
1)
b111011 $
b10011111 #
1%
#2175
0)
#2180
0*
1)
0(
#2185
0)
#2190
1*
1)
#2195
0)
#2200
0*
1)
0%
#2203
1(
#2205
0)
#2210
1*
1)
b10011001 $
b1011001 #
1%
#2215
0)
#2220
0*
1)
0(
#2225
0)
#2230
1*
1)
#2235
0)
#2240
0*
1)
0%
#2243
1(
#2245
0)
#2250
1*
1)
b1 $
b11010111 #
1%
#2255
0)
#2260
0*
1)
0(
#2265
0)
#2270
1*
1)
#2275
0)
#2280
0*
1)
0%
#2283
1(
#2285
0)
#2290
1*
1)
b1110000 $
b1100 #
1%
#2295
0)
#2300
0*
1)
0(
#2305
0)
#2310
1*
1)
#2315
0)
#2320
0*
1)
0%
#2323
1(
#2325
0)
#2330
1*
1)
b1101000 $
b1111101 #
1%
#2335
0)
#2340
0*
1)
0(
#2345
0)
#2350
1*
1)
#2355
0)
#2360
0*
1)
0%
#2363
1(
#2365
0)
#2370
1*
1)
b1001011 $
b100111 #
1%
#2375
0)
#2380
0*
1)
0(
#2385
0)
#2390
1*
1)
#2395
0)
#2400
0*
1)
0%
#2403
1(
#2405
0)
#2410
1*
1)
b10000110 $
b10101011 #
1%
#2415
0)
#2420
0*
1)
0(
#2425
0)
#2430
1*
1)
#2435
0)
#2440
0*
1)
0%
#2443
1(
#2445
0)
#2450
1*
1)
b10101 $
b1001000 #
1%
#2455
0)
#2460
0*
1)
0(
#2465
0)
#2470
1*
1)
#2475
0)
#2480
0*
1)
0%
#2483
1(
#2485
0)
#2490
1*
1)
b1100 $
b111011 #
1%
#2495
0)
#2500
0*
1)
0(
#2505
0)
#2510
1*
1)
#2515
0)
#2520
0*
1)
0%
#2523
1(
#2525
0)
#2530
1*
1)
b11111000 $
b10011001 #
1%
#2535
0)
#2540
0*
1)
0(
#2545
0)
#2550
1*
1)
#2555
0)
#2560
0*
1)
0%
#2563
1(
#2565
0)
#2570
1*
1)
b1010010 $
b1 #
1%
#2575
0)
#2580
0*
1)
0(
#2585
0)
#2590
1*
1)
#2595
0)
#2600
0*
1)
0%
#2603
1(
#2605
0)
#2610
1*
1)
b11110100 $
b1110000 #
1%
#2615
0)
#2620
0*
1)
0(
#2625
0)
#2630
1*
1)
#2635
0)
#2640
0*
1)
0%
#2643
1(
#2645
0)
#2650
1*
1)
b100 $
b1101000 #
1%
#2655
0)
#2660
0*
1)
0(
#2665
0)
#2670
1*
1)
#2675
0)
#2680
0*
1)
0%
#2683
1(
#2685
0)
#2690
1*
1)
b10000111 $
b1001011 #
1%
#2695
0)
#2700
0*
1)
0(
#2705
0)
#2710
1*
1)
#2715
0)
#2720
0*
1)
0%
#2723
1(
#2725
0)
#2730
1*
1)
b11101 $
b10000110 #
1%
#2735
0)
#2740
0*
1)
0(
#2745
0)
#2750
1*
1)
#2755
0)
#2760
0*
1)
0%
#2763
1(
#2765
0)
#2770
1*
1)
b11101000 $
b10101 #
1%
#2775
0)
#2780
0*
1)
0(
#2785
0)
#2790
1*
1)
#2795
0)
#2800
0*
1)
0%
#2803
1(
#2805
0)
#2810
1*
1)
b10001101 $
b1100 #
1%
#2815
0)
#2820
0*
1)
0(
#2825
0)
#2830
1*
1)
#2835
0)
#2840
0*
1)
0%
#2843
1(
#2845
0)
#2850
1*
1)
b11110111 $
b11111000 #
1%
#2855
0)
#2860
0*
1)
0(
#2865
0)
#2870
1*
1)
#2875
0)
#2880
0*
1)
0%
#2883
1(
#2885
0)
#2890
1*
1)
b10111110 $
b1010010 #
1%
#2895
0)
#2900
0*
1)
0(
#2905
0)
#2910
1*
1)
#2915
0)
#2920
0*
1)
0%
#2923
1(
#2925
0)
#2930
1*
1)
b111111 $
b11110100 #
1%
#2935
0)
#2940
0*
1)
0(
#2945
0)
#2950
1*
1)
#2955
0)
#2960
0*
1)
0%
#2963
1(
#2965
0)
#2970
1*
1)
b1100 $
b100 #
1%
#2975
0)
#2980
0*
1)
0(
#2985
0)
#2990
1*
1)
#2995
0)
#3000
0*
1)
0%
#3003
1(
#3005
0)
#3010
1*
1)
b10101001 $
b10000111 #
1%
#3015
0)
#3020
0*
1)
0(
#3025
0)
#3030
1*
1)
#3035
0)
#3040
0*
1)
0%
#3043
1(
#3045
0)
#3050
1*
1)
b10111101 $
b11101 #
1%
#3055
0)
#3060
0*
1)
0(
#3065
0)
#3070
1*
1)
#3075
0)
#3080
0*
1)
0%
#3083
1(
#3085
0)
#3090
1*
1)
b10001010 $
b11101000 #
1%
#3095
0)
#3100
0*
1)
0(
#3105
0)
#3110
1*
1)
#3115
0)
#3120
0*
1)
0%
#3123
1(
#3125
0)
#3130
1*
1)
b10100110 $
b10001101 #
1%
#3135
0)
#3140
0*
1)
0(
#3145
0)
#3150
1*
1)
#3155
0)
#3160
0*
1)
0%
#3163
1(
#3165
0)
#3170
1*
1)
b10010101 $
b11110111 #
1%
#3175
0)
#3180
0*
1)
0(
#3185
0)
#3190
1*
1)
#3195
0)
#3200
0*
1)
0%
#3203
1(
#3205
0)
#3210
1*
1)
b11001110 $
b10111110 #
1%
#3215
0)
#3220
0*
1)
0(
#3225
0)
#3230
1*
1)
#3235
0)
#3240
0*
1)
0%
#3243
1(
#3245
0)
#3250
1*
1)
b11000 $
b111111 #
1%
#3255
0)
#3260
0*
1)
0(
#3265
0)
#3270
1*
1)
#3275
0)
#3280
0*
1)
0%
#3283
1(
#3285
0)
#3290
1*
1)
b11110010 $
b1100 #
1%
#3295
0)
#3300
0*
1)
0(
#3305
0)
#3310
1*
1)
#3315
0)
#3320
0*
1)
0%
#3323
1(
#3325
0)
#3330
1*
1)
b10100101 $
b10101001 #
1%
#3335
0)
#3340
0*
1)
0(
#3345
0)
#3350
1*
1)
#3355
0)
#3360
0*
1)
0%
#3363
1(
#3365
0)
#3370
1*
1)
b11101111 $
b10111101 #
1%
#3375
0)
#3380
0*
1)
0(
#3385
0)
#3390
1*
1)
#3395
0)
#3400
0*
1)
0%
#3403
1(
#3405
0)
#3410
1*
1)
b0 $
b10001010 #
1%
#3415
0)
#3420
0*
1)
0(
#3425
0)
#3430
1*
1)
#3435
0)
#3440
0*
1)
0%
#3443
1(
#3445
0)
#3450
1*
1)
b1010111 $
b10100110 #
1%
#3455
0)
#3460
0*
1)
0(
#3465
0)
#3470
1*
1)
#3475
0)
#3480
0*
1)
0%
#3483
1(
#3485
0)
#3490
1*
1)
b1100 $
b10010101 #
1%
#3495
0)
#3500
0*
1)
0(
#3505
0)
#3510
1*
1)
#3515
0)
#3520
0*
1)
0%
#3523
1(
#3525
0)
#3530
1*
1)
b11000011 $
b11001110 #
1%
#3535
0)
#3540
0*
1)
0(
#3545
0)
#3550
1*
1)
#3555
0)
#3560
0*
1)
0%
#3563
1(
#3565
0)
#3570
1*
1)
b10101101 $
b11000 #
1%
#3575
0)
#3580
0*
1)
0(
#3585
0)
#3590
1*
1)
#3595
0)
#3600
0*
1)
0%
#3603
1(
#3605
0)
#3610
1*
1)
b111111 $
b11110010 #
1%
#3615
0)
#3620
0*
1)
0(
#3625
0)
#3630
1*
1)
#3635
0)
#3640
0*
1)
0%
#3643
1(
#3645
0)
#3650
1*
1)
b11001000 $
b10100101 #
1%
#3655
0)
#3660
0*
1)
0(
#3665
0)
#3670
1*
1)
#3675
0)
#3680
0*
1)
0%
#3683
1(
#3685
0)
#3690
1*
1)
b11100000 $
b11101111 #
1%
#3695
0)
#3700
0*
1)
0(
#3705
0)
#3710
1*
1)
#3715
0)
#3720
0*
1)
0%
#3723
1(
#3725
0)
#3730
1*
1)
b11001001 $
b0 #
1%
#3735
0)
#3740
0*
1)
0(
#3745
0)
#3750
1*
1)
#3755
0)
#3760
0*
1)
0%
#3763
1(
#3765
0)
#3770
1*
1)
b11111101 $
b1010111 #
1%
#3775
0)
#3780
0*
1)
0(
#3785
0)
#3790
1*
1)
#3795
0)
#3800
0*
1)
0%
#3803
1(
#3805
0)
#3810
1*
1)
b11110 $
b1100 #
1%
#3815
0)
#3820
0*
1)
0(
#3825
0)
#3830
1*
1)
#3835
0)
#3840
0*
1)
0%
#3843
1(
#3845
0)
#3850
1*
1)
b101110 $
b11000011 #
1%
#3855
0)
#3860
0*
1)
0(
#3865
0)
#3870
1*
1)
#3875
0)
#3880
0*
1)
0%
#3883
1(
#3885
0)
#3890
1*
1)
b10000 $
b10101101 #
1%
#3895
0)
#3900
0*
1)
0(
#3905
0)
#3910
1*
1)
#3915
0)
#3920
0*
1)
0%
#3923
1(
#3925
0)
#3930
1*
1)
b11110011 $
b111111 #
1%
#3935
0)
#3940
0*
1)
0(
#3945
0)
#3950
1*
1)
#3955
0)
#3960
0*
1)
0%
#3963
1(
#3965
0)
#3970
1*
1)
b100000 $
b11001000 #
1%
#3975
0)
#3980
0*
1)
0(
#3985
0)
#3990
1*
1)
#3995
0)
#4000
0*
1)
0%
#4003
1(
#4005
0)
#4010
1*
1)
b10001 $
b11100000 #
1%
#4015
0)
#4020
0*
1)
0(
#4025
0)
#4030
1*
1)
#4035
0)
#4040
0*
1)
0%
#4043
1(
#4045
0)
#4050
1*
1)
b10111100 $
b11001001 #
1%
#4055
0)
#4060
0*
1)
0(
#4065
0)
#4070
1*
1)
#4075
0)
#4080
0*
1)
0%
#4083
1(
#4085
0)
#4090
1*
1)
b10100010 $
b11111101 #
1%
#4095
0)
#4100
0*
1)
0(
#4105
0)
#4110
1*
1)
#4115
0)
#4120
0*
1)
0%
#4123
1(
#4125
0)
#4130
1*
1)
b1001110 $
b11110 #
1%
#4135
0)
#4140
0*
1)
0(
#4145
0)
#4150
1*
1)
#4155
0)
#4160
0*
1)
0%
#4163
1(
#4165
0)
#4170
1*
1)
b10010110 $
b101110 #
1%
#4175
0)
#4180
0*
1)
0(
#4185
0)
#4190
1*
1)
#4195
0)
#4200
0*
1)
0%
#4203
1(
#4205
0)
#4210
1*
1)
b1011100 $
b10000 #
1%
#4215
0)
#4220
0*
1)
0(
#4225
0)
#4230
1*
1)
#4235
0)
#4240
0*
1)
0%
#4243
1(
#4245
0)
#4250
1*
1)
b101011 $
b11110011 #
1%
#4255
0)
#4260
0*
1)
0(
#4265
0)
#4270
1*
1)
#4275
0)
#4280
0*
1)
0%
#4283
1(
#4285
0)
#4290
1*
1)
b11101100 $
b100000 #
1%
#4295
0)
#4300
0*
1)
0(
#4305
0)
#4310
1*
1)
#4315
0)
#4320
0*
1)
0%
#4323
1(
#4325
0)
#4330
1*
1)
b10010101 $
b10001 #
1%
#4335
0)
#4340
0*
1)
0(
#4345
0)
#4350
1*
1)
#4355
0)
#4360
0*
1)
0%
#4363
1(
#4365
0)
#4370
1*
1)
b1100 $
b10111100 #
1%
#4375
0)
#4380
0*
1)
0(
#4385
0)
#4390
1*
1)
#4395
0)
#4400
0*
1)
0%
#4403
1(
#4405
0)
#4410
1*
1)
b1111011 $
b10100010 #
1%
#4415
0)
#4420
0*
1)
0(
#4425
0)
#4430
1*
1)
#4435
0)
#4440
0*
1)
0%
#4443
1(
#4445
0)
#4450
1*
1)
b10010010 $
b1001110 #
1%
#4455
0)
#4460
0*
1)
0(
#4465
0)
#4470
1*
1)
#4475
0)
#4480
0*
1)
0%
#4483
1(
#4485
0)
#4490
1*
1)
b1011000 $
b10010110 #
1%
#4495
0)
#4500
0*
1)
0(
#4505
0)
#4510
1*
1)
#4515
0)
#4520
0*
1)
0%
#4523
1(
#4525
0)
#4530
1*
1)
b10011111 $
b1011100 #
1%
#4535
0)
#4540
0*
1)
0(
#4545
0)
#4550
1*
1)
#4555
0)
#4560
0*
1)
0%
#4563
1(
#4565
0)
#4570
1*
1)
b11011011 $
b101011 #
1%
#4575
0)
#4580
0*
1)
0(
#4585
0)
#4590
1*
1)
#4595
0)
#4600
0*
1)
0%
#4603
1(
#4605
0)
#4610
1*
1)
b111010 $
b11101100 #
1%
#4615
0)
#4620
0*
1)
0(
#4625
0)
#4630
1*
1)
#4635
0)
#4640
0*
1)
0%
#4643
1(
#4645
0)
#4650
1*
1)
b1101110 $
b10010101 #
1%
#4655
0)
#4660
0*
1)
0(
#4665
0)
#4670
1*
1)
#4675
0)
#4680
0*
1)
0%
#4683
1(
#4685
0)
#4690
1*
1)
b1000111 $
b1100 #
1%
#4695
0)
#4700
0*
1)
0(
#4705
0)
#4710
1*
1)
#4715
0)
#4720
0*
1)
0%
#4723
1(
#4725
0)
#4730
1*
1)
b11101001 $
b1111011 #
1%
#4735
0)
#4740
0*
1)
0(
#4745
0)
#4750
1*
1)
#4755
0)
#4760
0*
1)
0%
#4763
1(
#4765
0)
#4770
1*
1)
b10000111 $
b10010010 #
1%
#4775
0)
#4780
0*
1)
0(
#4785
0)
#4790
1*
1)
#4795
0)
#4800
0*
1)
0%
#4803
1(
#4805
0)
#4810
1*
1)
b11011110 $
b1011000 #
1%
#4815
0)
#4820
0*
1)
0(
#4825
0)
#4830
1*
1)
#4835
0)
#4840
0*
1)
0%
#4843
1(
#4845
0)
#4850
1*
1)
b11101011 $
b10011111 #
1%
#4855
0)
#4860
0*
1)
0(
#4865
0)
#4870
1*
1)
#4875
0)
#4880
0*
1)
0%
#4883
1(
#4885
0)
#4890
1*
1)
b1000110 $
b11011011 #
1%
#4895
0)
#4900
0*
1)
0(
#4905
0)
#4910
1*
1)
#4915
0)
#4920
0*
1)
0%
#4923
1(
#4925
0)
#4930
1*
1)
b10011100 $
b111010 #
1%
#4935
0)
#4940
0*
1)
0(
#4945
0)
#4950
1*
1)
#4955
0)
#4960
0*
1)
0%
#4963
1(
#4965
0)
#4970
1*
1)
b111000 $
b1101110 #
1%
#4975
0)
#4980
0*
1)
0(
#4985
0)
#4990
1*
1)
#4995
0)
#5000
0*
1)
0%
#5003
1(
#5005
0)
#5010
1*
1)
b11101 $
b1000111 #
1%
#5015
0)
#5020
0*
1)
0(
#5025
0)
#5030
1*
1)
#5035
0)
#5040
0*
1)
0%
#5043
1(
#5045
0)
#5050
1*
1)
b11101001 #
1%
#5055
0)
#5060
0*
1)
0(
#5065
0)
#5070
1*
1)
#5075
0)
#5080
0*
1)
0%
#5083
1(
#5085
0)
#5090
1*
1)
b10000111 #
1%
#5095
0)
#5100
0*
1)
0(
#5105
0)
#5110
1*
1)
#5115
0)
#5120
0*
1)
0%
#5123
1(
#5125
0)
#5130
1*
1)
b11011110 #
1%
#5135
0)
#5140
0*
1)
0(
#5145
0)
#5150
1*
1)
#5155
0)
#5160
0*
1)
0%
#5163
1(
#5165
0)
#5170
1*
1)
b11101011 #
1%
#5175
0)
#5180
0*
1)
0(
#5185
0)
#5190
1*
1)
#5195
0)
#5200
0*
1)
0%
#5203
1(
#5205
0)
#5210
1*
1)
b1000110 #
1%
#5215
0)
#5220
0*
1)
0(
#5225
0)
#5230
1*
1)
#5235
0)
#5240
0*
1)
0%
#5243
1(
#5245
0)
#5250
1*
1)
b10011100 #
1%
#5255
0)
#5260
0*
1)
0(
#5265
0)
#5270
1*
1)
#5275
0)
#5280
0*
1)
0%
#5283
1(
#5285
0)
#5290
1*
1)
b111000 #
1%
#5295
0)
#5300
0*
1)
0(
#5305
0)
#5310
1*
1)
#5315
0)
#5320
0*
1)
0%
#5323
1(
#5325
0)
#5330
1*
1)
b11101 #
1%
#5335
0)
#5340
0*
1)
0(
#5345
0)
#5350
1*
1)
#5355
0)
#5360
0*
1)
0%
#5363
1(
#5365
0)
#5370
1*
1)
1%
#5375
0)
#5380
0*
1)
0(
#5385
0)
#5390
1*
1)
#5395
0)
#5400
0*
1)
0%
#5403
1(
#5405
0)
#5410
1*
1)
1%
#5415
0)
#5420
0*
1)
0(
#5425
0)
#5430
1*
1)
#5435
0)
#5440
0*
1)
0%
#5443
1(
#5445
0)
#5450
1*
1)
1%
#5455
0)
#5460
0*
1)
0(
#5465
0)
#5470
1*
1)
#5475
0)
#5480
0*
1)
0%
#5483
1(
#5485
0)
#5490
1*
1)
1%
#5495
0)
#5500
0*
1)
0(
#5505
0)
#5510
1*
1)
#5515
0)
#5520
0*
1)
0%
#5523
1(
#5525
0)
#5530
1*
1)
1%
#5535
0)
#5540
0*
1)
0(
#5545
0)
#5550
1*
1)
#5555
0)
#5560
0*
1)
0%
#5563
1(
#5565
0)
#5570
1*
1)
1%
#5575
0)
#5580
0*
1)
0(
#5585
0)
#5590
1*
1)
#5595
0)
#5600
0*
1)
0%
#5603
1(
#5605
0)
#5610
1*
1)
1%
#5615
0)
#5620
0*
1)
0(
#5625
0)
#5630
1*
1)
#5635
0)
#5640
0*
1)
0%
#5643
1(
#5645
0)
#5650
1*
1)
1%
#5655
0)
#5660
0*
1)
0(
#5665
0)
#5670
1*
1)
#5675
0)
#5680
0*
1)
0%
#5683
1(
#5685
0)
#5690
1*
1)
1%
#5695
0)
#5700
0*
1)
0(
#5705
0)
#5710
1*
1)
#5715
0)
#5720
0*
1)
0%
#5723
1(
#5725
0)
#5730
1*
1)
1%
#5735
0)
#5740
0*
1)
0(
#5745
0)
#5750
1*
1)
#5755
0)
#5760
0*
1)
0%
#5763
1(
#5765
0)
#5770
1*
1)
1%
#5775
0)
#5780
0*
1)
0(
#5785
0)
#5790
1*
1)
#5795
0)
#5800
0*
1)
0%
#5803
1(
#5805
0)
#5810
1*
1)
1%
#5815
0)
#5820
0*
1)
0(
#5825
0)
#5830
1*
1)
#5835
0)
#5840
0*
1)
0%
#5843
1(
#5845
0)
#5850
1*
1)
1%
#5855
0)
#5860
0*
1)
0(
#5865
0)
#5870
1*
1)
#5875
0)
#5880
0*
1)
0%
#5883
1(
#5885
0)
#5890
1*
1)
1%
#5895
0)
#5900
0*
1)
0(
#5905
0)
#5910
1*
1)
#5915
0)
#5920
0*
1)
0%
#5923
1(
#5925
0)
#5930
1*
1)
1%
#5935
0)
#5940
0*
1)
0(
#5945
0)
#5950
1*
1)
#5955
0)
#5960
0*
1)
0%
#5963
1(
#5965
0)
#5970
1*
1)
1%
#5975
0)
#5980
0*
1)
0(
#5985
0)
#5990
1*
1)
#5995
0)
#6000
0*
1)
0%
#6003
1(
#6005
0)
#6010
1*
1)
1%
#6015
0)
#6020
0*
1)
0(
#6025
0)
#6030
1*
1)
#6035
0)
#6040
0*
1)
0%
#6043
1(
#6045
0)
#6050
1*
1)
1%
#6055
0)
#6060
0*
1)
0(
#6065
0)
#6070
1*
1)
#6075
0)
#6080
0*
1)
0%
#6083
1(
#6085
0)
#6090
1*
1)
1%
#6095
0)
#6100
0*
1)
0(
#6105
0)
#6110
1*
1)
#6115
0)
#6120
0*
1)
0%
#6123
1(
#6125
0)
#6130
1*
1)
1%
#6135
0)
#6140
0*
1)
0(
#6145
0)
#6150
1*
1)
#6155
0)
#6160
0*
1)
0%
#6163
1(
#6165
0)
#6170
1*
1)
1%
#6175
0)
#6180
0*
1)
0(
#6185
0)
#6190
1*
1)
#6195
0)
#6200
0*
1)
0%
#6203
1(
#6205
0)
#6210
1*
1)
1%
#6215
0)
#6220
0*
1)
0(
#6225
0)
