team_05_Async_FIFO/M5_Bug/RUN/uvm_AFIFO_top.vcd
$date
	Wed Mar  5 01:41:30 2025
$end
$version
	QuestaSim Version 2024.2
$end
$timescale
	1ns
$end

$scope module uvm_AFIFO_top $end

$scope module vif $end
$var parameter 32 ! DSIZE $end
$var parameter 32 " ASIZE $end
$var reg 8 # rd_data [7:0] $end
$var reg 8 $ wr_data [7:0] $end
$var reg 1 % wr_full $end
$var reg 1 & rd_empty $end
$var reg 1 ' wr_inc $end
$var reg 1 ( rd_inc $end
$var reg 1 ) wr_clk $end
$var reg 1 * rd_clk $end
$var reg 1 + wr_rst $end
$var reg 1 , rd_rst $end
$upscope $end
$upscope $end
$enddefinitions $end
#0
$dumpvars
bx #
bx $
0%
1&
0'
0(
1)
0*
0+
0,
b1000 !
b11 "
$end
#5
0)
#10
1*
1)
#15
0)
#20
0*
1)
1+
1,
#25
0)
#30
1*
1)
0,
0+
#35
0)
#40
0*
1)
1+
1,
#45
0)
#50
1*
1)
1'
b11110011 $
#55
0)
#60
0*
1)
b1001000 $
#65
0)
#70
1*
1)
b10010001 $
#75
0)
#80
0*
1)
b11110010 $
#85
0)
#90
1*
1)
b10001 $
#95
0)
#100
0*
1)
b11011100 $
#105
0)
#110
1*
1)
b0 $
0&
#115
0)
#120
0*
1)
b11001 $
#123
1(
#125
0)
#130
1*
1)
b1111001 $
b11110011 #
1%
#135
0)
#140
0*
1)
0(
#145
0)
#150
1*
1)
#155
0)
#160
0*
1)
0%
#163
1(
#165
0)
#170
1*
1)
b1100111 $
b1001000 #
1%
#175
0)
#180
0*
1)
0(
#185
0)
#190
1*
1)
#195
0)
#200
0*
1)
0%
#203
1(
#205
0)
#210
1*
1)
b10100111 $
b10010001 #
1%
#215
0)
#220
0*
1)
0(
#225
0)
#230
1*
1)
#235
0)
#240
0*
1)
0%
#243
1(
#245
0)
#250
1*
1)
b11110010 #
1%
#255
0)
#260
0*
1)
0(
#265
0)
#270
1*
1)
#275
0)
#280
0*
1)
0%
#283
1(
#285
0)
#290
1*
1)
b10001 #
1%
#295
0)
#300
0*
1)
0(
#305
0)
#310
1*
1)
#315
0)
#320
0*
1)
0%
#323
1(
#325
0)
#330
1*
1)
b11011100 #
1%
#335
0)
#340
0*
1)
0(
#345
0)
#350
1*
1)
#355
0)
#360
0*
1)
0%
#363
1(
#365
0)
#370
1*
1)
b0 #
1%
#375
0)
#380
0*
1)
0(
#385
0)
#390
1*
1)
#395
0)
#400
0*
1)
0%
#403
1(
#405
0)
#410
1*
1)
b11001 #
1%
#415
0)
#420
0*
1)
0(
#425
0)
#430
1*
1)
#435
0)
#440
0*
1)
0%
#443
1(
#445
0)
#450
1*
1)
b1111001 #
1%
#455
0)
#460
0*
1)
0(
#465
0)
#470
1*
1)
#475
0)
#480
0*
1)
0%
#483
1(
#485
0)
#490
1*
1)
b1100111 #
1%
#495
0)
#500
0*
1)
0(
#505
0)
#510
1*
1)
#515
0)
#520
0*
1)
0%
#523
1(
#525
0)
#530
1*
1)
b10100111 #
1%
#535
0)
#540
0*
1)
0(
#545
0)
#550
1*
1)
#555
0)
#560
0*
1)
0%
#563
1(
#565
0)
#570
1*
1)
1%
#575
0)
#580
0*
1)
0(
#585
0)
#590
1*
1)
#595
0)
#600
0*
1)
0%
#603
1(
#605
0)
#610
1*
1)
1%
#615
0)
#620
0*
1)
0(
#625
0)
#630
1*
1)
#635
0)
#640
0*
1)
0%
#643
1(
#645
0)
#650
1*
1)
1%
#655
0)
#660
0*
1)
0(
#665
0)
#670
1*
1)
#675
0)
#680
0*
1)
0%
#683
1(
#685
0)
#690
1*
1)
1%
#695
0)
#700
0*
1)
0(
#705
0)
#710
1*
1)
#715
0)
#720
0*
1)
0%
#723
1(
#725
0)
#730
1*
1)
1%
#735
0)
#740
0*
1)
0(
#745
0)
#750
1*
1)
#755
0)
#760
0*
1)
0%
#763
1(
#765
0)
#770
1*
1)
1%
#775
0)
#780
0*
1)
0(
#785
0)
#790
1*
1)
#795
0)
#800
0*
1)
0%
#803
1(
#805
0)
#810
1*
1)
1%
#815
0)
#820
0*
1)
0(
#825
0)
#830
1*
1)
#835
0)
#840
0*
1)
0%
#843
1(
#845
0)
#850
1*
1)
1%
#855
0)
#860
0*
1)
0(
#865
0)
#870
1*
1)
#875
0)
#880
0*
1)
0%
#883
1(
#885
0)
#890
1*
1)
1%
#895
0)
#900
0*
1)
0(
#905
0)
#910
1*
1)
#915
0)
#920
0*
1)
0%
#923
1(
#925
0)
#930
1*
1)
1%
#935
0)
#940
0*
1)
0(
#945
0)
#950
1*
1)
#955
0)
#960
0*
1)
0%
#963
1(
#965
0)
#970
1*
1)
1%
#975
0)
#980
0*
1)
0(
#985
0)
#990
1*
1)
#995
0)
#1000
0*
1)
0%
#1005
0)
#1010
1*
1)
1%
#1015
0)
#1020
0*
1)
#1023
1(
#1025
0)
#1030
1*
1)
#1035
0)
#1040
0*
1)
0(
#1045
0)
#1050
1*
1)
#1055
0)
#1060
0*
1)
0%
#1063
1(
#1065
0)
#1070
1*
1)
1%
#1075
0)
#1080
0*
1)
0(
#1085
0)
#1090
1*
1)
#1095
0)
#1100
0*
1)
0%
#1103
1(
#1105
0)
#1110
1*
1)
1%
#1115
0)
#1120
0*
1)
0(
#1125
0)
#1130
1*
1)
#1135
0)
#1140
0*
1)
0%
#1143
1(
#1145
0)
#1150
1*
1)
1%
#1155
0)
#1160
0*
1)
0(
#1165
0)
#1170
1*
1)
#1175
0)
#1180
0*
1)
0%
#1183
1(
#1185
0)
#1190
1*
1)
1%
#1195
0)
#1200
0*
1)
0(
#1205
0)
#1210
1*
1)
#1215
0)
#1220
0*
1)
0%
#1223
1(
#1225
0)
#1230
1*
1)
1%
#1235
0)
#1240
0*
1)
0(
#1245
0)
#1250
1*
1)
#1255
0)
#1260
0*
1)
0%
#1263
1(
#1265
0)
#1270
1*
1)
1%
#1275
0)
#1280
0*
1)
0(
#1285
0)
#1290
1*
1)
#1295
0)
#1300
0*
1)
0%
#1303
1(
#1305
0)
#1310
1*
1)
1%
#1315
0)
#1320
0*
1)
0(
#1325
0)
#1330
1*
1)
#1335
0)
#1340
0*
1)
0%
#1343
1(
#1345
0)
#1350
1*
1)
1%
#1355
0)
#1360
0*
1)
0(
#1365
0)
#1370
1*
1)
#1375
0)
#1380
0*
1)
0%
#1383
1(
#1385
0)
#1390
1*
1)
1%
#1395
0)
#1400
0*
1)
0(
#1405
0)
#1410
1*
1)
#1415
0)
#1420
0*
1)
0%
#1423
1(
#1425
0)
#1430
1*
1)
1%
#1435
0)
#1440
0*
1)
0(
#1445
0)
#1450
1*
1)
#1455
0)
#1460
0*
1)
0%
#1463
1(
#1465
0)
#1470
1*
1)
1%
#1475
0)
#1480
0*
1)
0(
#1485
0)
#1490
1*
1)
#1495
0)
#1500
0*
1)
0%
#1503
1(
#1505
0)
#1510
1*
1)
1%
#1515
0)
#1520
0*
1)
0(
#1525
0)
#1530
1*
1)
#1535
0)
#1540
0*
1)
0%
#1543
1(
#1545
0)
#1550
1*
1)
1%
#1555
0)
#1560
0*
1)
0(
#1565
0)
#1570
1*
1)
#1575
0)
#1580
0*
1)
0%
#1583
1(
#1585
0)
#1590
1*
1)
1%
#1595
0)
#1600
0*
1)
0(
#1605
0)
#1610
1*
1)
#1615
0)
#1620
0*
1)
0%
#1623
1(
#1625
0)
#1630
1*
1)
1%
#1635
0)
#1640
0*
1)
0(
#1645
0)
#1650
1*
1)
#1655
0)
#1660
0*
1)
0%
#1663
1(
#1665
0)
#1670
1*
1)
1%
#1675
0)
#1680
0*
1)
0(
#1685
0)
#1690
1*
1)
#1695
0)
#1700
0*
1)
0%
#1703
1(
#1705
0)
#1710
1*
1)
1%
#1715
0)
#1720
0*
1)
0(
#1725
0)
#1730
1*
1)
#1735
0)
#1740
0*
1)
0%
#1743
1(
#1745
0)
#1750
1*
1)
1%
#1755
0)
#1760
0*
1)
0(
#1765
0)
#1770
1*
1)
#1775
0)
#1780
0*
1)
0%
#1783
1(
#1785
0)
#1790
1*
1)
1%
#1795
0)
#1800
0*
1)
0(
#1805
0)
#1810
1*
1)
#1815
0)
#1820
0*
1)
0%
#1823
1(
#1825
0)
#1830
1*
1)
1%
#1835
0)
#1840
0*
1)
0(
#1845
0)
#1850
1*
1)
#1855
0)
#1860
0*
1)
0%
#1863
1(
#1865
0)
#1870
1*
1)
1%
#1875
0)
#1880
0*
1)
0(
#1885
0)
#1890
1*
1)
#1895
0)
#1900
0*
1)
0%
#1903
1(
#1905
0)
#1910
1*
1)
1%
#1915
0)
#1920
0*
1)
0(
#1925
0)
#1930
1*
1)
#1935
0)
#1940
0*
1)
0%
#1943
1(
#1945
0)
#1950
1*
1)
1%
#1955
0)
#1960
0*
1)
0(
#1965
0)
#1970
1*
1)
#1975
0)
#1980
0*
1)
0%
#1983
1(
#1985
0)
#1990
1*
1)
1%
#1995
0)
#2000
0*
1)
0(
#2005
0)
#2010
1*
1)
#2015
0)
#2020
0*
1)
0%
#2023
1(
#2025
0)
#2030
1*
1)
1%
#2035
0)
#2040
0*
1)
0(
#2045
0)
#2050
1*
1)
#2055
0)
#2060
0*
1)
0%
#2065
0)
#2070
1*
1)
1%
